<?xml version="1.0" encoding="UTF-8"?>
<svg width="10px" height="20px" viewBox="0 0 10 20" version="1.1" xmlns="http://www.w3.org/2000/svg" xmlns:xlink="http://www.w3.org/1999/xlink">
    <!-- Generator: Sketch 41.2 (35397) - http://www.bohemiancoding.com/sketch -->
    <title>Shape</title>
    <desc>Created with Sketch.</desc>
    <defs></defs>
    <g id="Page-1" stroke="none" stroke-width="1" fill="none" fill-rule="evenodd">
        <path d="M10,0 L10,0 L10,0 L10,4 L8,4 C7.31,4 7,4.81 7,5.5 L7,8 L7,8 L10,8 L10,12 L7,12 L7,20 L3,20 L3,12 L0,12 L0,8 L3,8 L3,4 C3,1.790861 4.790861,4.4408921e-16 7,0 L10,0 Z" id="Shape" fill="#FFFFFF"></path>
    </g>
</svg>